<svg xmlns="http://www.w3.org/2000/svg" width="480" height="480" viewBox="0 0 480 480">
  <defs>
    <style>
      .cls-1 {
        fill: #505050;
        fill-rule: evenodd;
      }
    </style>
  </defs>
  <path id="ttl_icon_profile02.svg" class="cls-1" d="M610.528,691.789a184.369,184.369,0,0,0,180.3-76.167,114.229,114.229,0,0,0-18.338-150.206,60.583,60.583,0,1,0-61.666,101.535l0.918,0.35a22.3,22.3,0,0,1,15.028,21.059,25.98,25.98,0,0,1-.679,5.7A129.539,129.539,0,0,1,610.528,691.789ZM458.193,480.527a186.883,186.883,0,0,0-2.346,29.443,184.447,184.447,0,0,0,78.514,150.844,114.231,114.231,0,0,0,150.219-18.33,60.587,60.587,0,1,0-101.54-61.673l-0.354.921a22.3,22.3,0,0,1-21.063,15.033,26.371,26.371,0,0,1-5.688-.679A129.53,129.53,0,0,1,458.193,480.527Zm181.82-154.681a184.52,184.52,0,0,0-150.845,78.493A114.272,114.272,0,0,0,507.5,554.574a60.589,60.589,0,1,0,61.679-101.548l-0.939-.346a22.288,22.288,0,0,1-15.016-21.067,25.412,25.412,0,0,1,.679-5.688A129.5,129.5,0,0,1,669.466,328.2,186.03,186.03,0,0,0,640.013,325.846Zm78.358,97.378a25.512,25.512,0,0,1,5.689.675,129.525,129.525,0,0,1,97.732,115.56,184.325,184.325,0,0,0-76.159-180.3,114.226,114.226,0,0,0-150.224,18.35,60.587,60.587,0,1,0,101.528,61.728l0.371-1A22.3,22.3,0,0,1,718.371,423.224ZM640,270c-132.552,0-240,107.442-240,239.981,0,132.556,107.444,240.01,240,240.01s240-107.454,240-240.01C879.992,377.443,772.537,270,640,270Zm0,441.134c-111.094,0-201.146-90.051-201.146-201.153C438.851,398.9,528.9,308.834,640,308.834S841.143,398.9,841.143,509.982C841.143,621.084,751.087,711.135,640,711.135Z" transform="translate(-400 -270)"/>
</svg>
